{
  "id": "/document/types/cash_rec_voucher.json",
  "$schema": "http://json-schema.org/draft-04/schema#",
  "title": "Документ типа 'Расходный кассовый ордер'",
  "type": "object",
  "properties": {
    "id": {
      "description": "Идентификатор документа в программе получателя",
      "type": [
        "integer",
        "null"
      ]
    },
    "foreignId": {
      "description": "Идентификатор документа в клиентской программе",
      "createChange": true,
      "type": [
        "string",
        "null"
      ]
    },
    "type": {
      "description": "Тип документа: Расходный кассовый ордер",
      "type": "string",
      "enum": [
        "capv"
      ]
    },
    "date": {
      "description": "Дата документа",
      "type": "string",
      "pattern": "^\\d{4}-\\d{2}-\\d{2}$"
    },
    "number": {
      "description": "Номер документа",
      "type": "string",
      "minLength": 1
    },
    "contract": {
      "description": "Договор",
      "type": [
        "object",
        "null"
      ],
      "properties": {
        "number": {
          "description": "Номер договора",
          "type": "string"
        },
        "date": {
          "type": "string",
          "description": "Дата договора",
          "pattern": "^\\d{4}-\\d{2}-\\d{2}$"
        },
        "fromContractor": {
          "description": "Поставщик",
          "type": "object",
          "properties": {
            "id": {
              "description": "Идентификатор контрагента",
              "type": "integer"
            },
            "name": {
              "description": "Наименование",
              "type": "string",
              "minLength": 1
            },
            "inn": {
              "description": "ИНН",
              "type": "string"
            },
            "kpp": {
              "description": "КПП",
              "type": [
                "string",
                "null"
              ]
            }
          }
        },
        "toContractor": {
          "description": "Покупатель",
          "type": "object",
          "properties": {
            "id": {
              "description": "Идентификатор контрагента",
              "type": "integer"
            },
            "name": {
              "description": "Наименование",
              "type": "string",
              "minLength": 1
            },
            "inn": {
              "description": "ИНН",
              "type": "string"
            },
            "kpp": {
              "description": "КПП",
              "type": [
                "string",
                "null"
              ]
            }
          }
        }
      }
    },
    "vat": {
      "description": "Ставка налогообложения",
      "type": "object",
      "properties": {
        "rate": {
          "description": "Показатель ставки (например, 18)",
          "type": [
            "integer",
            "null"
          ],
          "minimum": 0,
          "maximum": 100
        },
        "name": {
          "description": "Наименование (например, 18%)",
          "type": [
            "string",
            "null"
          ]
        }
      }
    },
    "sum": {
      "description": "Сумма без НДС",
      "type": "number",
      "minimum": 0.0,
      "default": 0.0
    },
    "vatSum": {
      "description": "Сумма НДС (сумма налога)",
      "type": "number",
      "minimum": 0.0,
      "default": 0.0
    },
    "sumWithVat": {
      "description": "Сумма вместе с НДС",
      "type": "number",
      "minimum": 0.0,
      "default": 0.0
    },
    "prepayment": {
      "description": "Аванс (предоплата)",
      "type": [
        "boolean"
      ],
      "default": false
    },
    "fromContractor": {
      "description": "Продавец",
      "type": "object",
      "properties": {
        "inn": {
          "description": "ИНН",
          "type": "string"
        },
        "name": {
          "description": "Наименование",
          "type": "string",
          "minLength": 1
        },
        "kpp": {
          "description": "КПП",
          "type": [
            "string",
            "null"
          ]
        },
        "registered": {
          "description": "Дата регистрации",
          "type": [
            "string",
            "null"
          ],
          "pattern": "^\\d{4}-\\d{2}-\\d{2}$"
        },
        "taxSystemType": {
          "description": "Тип системы налогообложения. COMMON - ОСН, SIMPLIFIED_TURNOVER - УСН Доходы, SIMPLIFIED_INCOME_MINUS_COSTS - УСН Доходы минус расходы",
          "type": [
            "string",
            "null"
          ],
          "enum": [
            "COMMON",
            "SIMPLIFIED_TURNOVER",
            "SIMPLIFIED_INCOME_MINUS_COSTS"
          ]
        }
      }
    },
    "toContractor": {
      "description": "Покупатель",
      "type": "object",
      "properties": {
        "inn": {
          "description": "ИНН",
          "type": "string"
        },
        "name": {
          "description": "Наименование",
          "type": "string",
          "minLength": 1
        },
        "kpp": {
          "description": "КПП",
          "type": [
            "string",
            "null"
          ]
        },
        "registered": {
          "description": "Дата регистрации",
          "type": [
            "string",
            "null"
          ],
          "pattern": "^\\d{4}-\\d{2}-\\d{2}$"
        },
        "taxSystemType": {
          "description": "Тип системы налогообложения. COMMON - ОСН, SIMPLIFIED_TURNOVER - УСН Доходы, SIMPLIFIED_INCOME_MINUS_COSTS - УСН Доходы минус расходы",
          "type": [
            "string",
            "null"
          ],
          "enum": [
            "COMMON",
            "SIMPLIFIED_TURNOVER",
            "SIMPLIFIED_INCOME_MINUS_COSTS"
          ]
        }
      }
    }
  },
  "required": [
    "type",
    "date",
    "number",
    "vat",
    "sum",
    "vatSum",
    "sumWithVat",
    "prepayment",
    "fromContractor",
    "toContractor"
  ]
}