{
  "document": {
    "id": null,
    "foreignId": "договор-222-333-444-555-777",
    "type": "ctrt",
    "date": "2016-01-20",
    "number": "Договор №33/44/55",
    "vat": {
      "rate": 18,
      "name": "18%"
    },
    "sum": 1000,
    "vatSum": 118,
    "sumWithVat": 1180,
    "fromContractor": {
      "inn": "7805928588",
      "name": "ООО «Тестовая фирма клиента»",
      "kpp": "1234567890"
    },
    "fromContractorAddress": {
      "fullAddress": "195176, Санкт-Петербург г, Пискаревский пр-кт, д. 25, лит. А, пом. 1-Н",
      "type": "LEGAL"
    },
    "fromContractorBankAccount": {
      "number": "40702810106000011200",
      "corr": "30101810000000000920",
      "bik": "044030920",
      "name": "СТ-ПЕТЕРБУРГСКИЙ Ф-Л ПАО \"ПРОМСВЯЗЬБАНК\""
    },
    "toContractor": {
      "inn": "7816094550",
      "name": "ООО «Тестовая фирма Клиппер»",
      "kpp": "1234567890"
    },
    "toContractorAddress": {
      "fullAddress": "190000, Санкт-Петербург г, Гривцова пер, д. 6, лит. А, пом. 15-Н",
      "type": "LEGAL"
    },
    "toContractorBankAccount": {
      "number": "40702810001400005832",
      "corr": "30101810200000000593",
      "bik": "044525593",
      "name": "АО \"АЛЬФА-БАНК\""
    }
  }
}