{
  "document": {
    "id": null,
    "foreignId": "УПД/2017-01-23/03",
    "type": "upd",
    "date": "2017-01-23",
    "number": "УПД/2017-01-23/03",
    "contract": {
      "number": "Договор/2017-01-23/03",
      "date": "2017-01-23"
    },
    "sum": 300,
    "vatSum": 36,
    "sumWithVat": 336,
    "prepayment": true,
    "basedOn": "Основание передачи/получения/приемки",
    "shipmentDate": "2017-02-13",
    "receiptDate": "2017-05-17",
    "transferDocumentStatus": 2,
    "transferDocumentType": "wbll",
    "transportationInfo": "Данные о транспортировке и грузе",
    "receiptInfo": "Иные сведения о приемке/получении",
    "otherDataAboutTransmission": "Иные сведения о передаче/отгрузке",
    "fromContractor": {
      "inn": "7816367101",
      "name": "ООО «КТК»",
      "kpp": "780201001"
    },
    "fromContractorAddress": {
      "fullAddress": "194044, Санкт-Петербург г, Сампсониевский Б. пр-кт, д. 62, лит. А, пом. 2Н",
      "type": "LEGAL"
    },
    "fromShipperIsFromContractor": true,
    "fromShipper": null,
    "fromShipperAddress": null,
    "toContractor": {
      "inn": "7816094550",
      "name": "ООО «Тестовая фирма Клиппер»",
      "kpp": "1234567890"
    },
    "toContractorAddress": {
      "fullAddress": "190000, Санкт-Петербург г, Гривцова пер, д. 6, лит. А, пом. 15-Н",
      "type": "LEGAL"
    },
    "toShipperIsToContractor": false,
    "toShipper": {
      "inn": "7804317770",
      "name": "ООО «ИнвестПромКонсалт»",
      "kpp": "780101001"
    },
    "toShipperAddress": {
      "fullAddress": "199106, Санкт-Петербург г, Кожевенная линия, 34, А",
      "type": "LEGAL"
    },
    "positions": [
      {
        "nomenclature": {
          "name": "Огурцы"
        },
        "amount": 5,
        "unit": {
          "name": "килограмм",
          "code": "кг"
        },
        "price": 20,
        "productCode": "ОГУРЦЫ-12345",
        "countryName": "Россия",
        "countryCode": "RUS",
        "declaration": null,
        "vat": {
          "rate": 18,
          "name": "18%"
        },
        "sum": 100,
        "vatSum": 18,
        "sumWithVat": 118.00,
        "exciseSum": 0
      },
      {
        "nomenclature": {
          "name": "Помидоры"
        },
        "amount": 5,
        "unit": {
          "name": "килограмм",
          "code": "кг"
        },
        "price": 20,
        "productCode": "ПОМИДОРЫ-54321",
        "countryName": "США",
        "countryCode": "USA",
        "declaration": "НТД №111-222-333",
        "vat": {
          "rate": 18,
          "name": "18%/118%"
        },
        "sum": 100,
        "vatSum": 18,
        "sumWithVat": 118.00,
        "exciseSum": 8
      },
      {
        "nomenclature": {
          "name": "Грибы"
        },
        "amount": 5,
        "unit": {
          "name": "штук",
          "code": "шт"
        },
        "price": 20,
        "productCode": "ГРИБЫ-666",
        "countryName": "Голландия",
        "countryCode": "NL",
        "declaration": "НТД №333-222-111",
        "vat": {
          "rate": null,
          "name": "БЕЗ НДС"
        },
        "sum": 100,
        "vatSum": 0,
        "sumWithVat": 100,
        "exciseSum": 10
      }
    ]
  }
}