{
  "document": {
    "id": null,
    "foreignId": "Акт/2016-09-08/01",
    "type": "act",
    "date": "2016-09-08",
    "number": "Акт/2016-09-08/01",
    "contract": {
      "number": "Договор/2016-09-08/01",
      "date": "2016-09-08"
    },
    "sum": 300,
    "vatSum": 36,
    "sumWithVat": 336,
    "condition": "Вышеперечисленные услуги (работы) выполнены полностью и в срок",
    "fromContractor": {
      "inn": "7805928588",
      "name": "ООО «Тестовая фирма клиента»",
      "kpp": "1234567890"
    },
    "fromContractorAddress": {
      "fullAddress": "195176, Санкт-Петербург г, Пискаревский пр-кт, д. 25, лит. А, пом. 1-Н",
      "type": "LEGAL"
    },
    "toContractor": {
      "inn": "7816094550",
      "name": "ООО «Тестовая фирма Клиппер»",
      "kpp": "1234567890"
    },
    "toContractorAddress": {
      "fullAddress": "190000, Санкт-Петербург г, Гривцова пер, д. 6, лит. А, пом. 15-Н",
      "type": "LEGAL"
    },
    "positions": [
      {
        "nomenclature": {
          "name": "Огурцы"
        },
        "amount": 5,
        "unit": {
          "name": "килограмм",
          "code": "кг"
        },
        "price": 20,
        "vat": {
          "rate": 18,
          "name": "18%"
        },
        "sum": 100,
        "vatSum": 18,
        "sumWithVat": 118.00
      },
      {
        "nomenclature": {
          "name": "Помидоры"
        },
        "amount": 5,
        "unit": {
          "name": "килограмм",
          "code": "кг"
        },
        "price": 20,
        "vat": {
          "rate": 18,
          "name": "18%/118%"
        },
        "sum": 100,
        "vatSum": 18,
        "sumWithVat": 118.00
      },
      {
        "nomenclature": {
          "name": "Грибы"
        },
        "amount": 5,
        "unit": {
          "name": "штук",
          "code": "шт"
        },
        "price": 20,
        "vat": {
          "rate": null,
          "name": "БЕЗ НДС"
        },
        "sum": 100,
        "vatSum": 0,
        "sumWithVat": 100
      }
    ]
  }
}