{
  "document": {
    "id": null,
    "foreignId": "РКО/2016-09-08/01",
    "type": "capv",
    "date": "2016-09-08",
    "number": "РКО/2016-09-08/01",
    "contract": {
      "number": "Договор/2016-09-08/01",
      "date": "2016-09-08"
    },
    "vat": {
      "rate": 18,
      "name": "18%"
    },
    "sum": 1000,
    "vatSum": 118,
    "sumWithVat": 1180,
    "prepayment": false,
    "fromContractor": {
      "inn": "7805928588",
      "name": "ООО «Тестовая фирма клиента»",
      "kpp": "1234567890"
    },
    "toContractor": {
      "inn": "7816094550",
      "name": "ООО «Тестовая фирма Клиппер»",
      "kpp": "1234567890"
    }
  }
}