{
  "document": {
    "id": 16330624,
    "foreignId": null,
    "date": "2015-08-31",
    "number": "1",
    "type": "prll",
    "month": 8,
    "year": 2015,
    "toContractor": {
      "inn": "7825402320",
      "kpp": "780501001",
      "name": "НПО \"ГОТИКА\"",
      "registered": "1998-03-13",
      "taxSystemType": "COMMON"
    },
    "positions": [
      {
        "person": {
          "inn": "11111111111",
          "snils": "111-111-111-11",
          "name": "Юрий",
          "secondName": "Резепин",
          "thirdName": "Михайлович",
          "hireDate": "2012-09-26",
          "fireDate": null,
          "salary": 12000,
          "rate": 1
        },
        "sumWithVat": 12000
      },
      {
        "person": {
          "inn": "222222222222",
          "snils": "222-222-222-22",
          "name": "Вячеслав",
          "secondName": "Мещеряков",
          "thirdName": "Олегович",
          "hireDate": "2014-01-13",
          "fireDate": null,
          "salary": 6000,
          "rate": 1
        },
        "sumWithVat": 6000
      },
      {
        "person": {
          "inn": "333333333333",
          "snils": "333-333-333-33",
          "name": "Александр",
          "secondName": "Иванов",
          "thirdName": "Анатольевич",
          "hireDate": "2014-01-21",
          "fireDate": null,
          "salary": 6000,
          "rate": 1
        },
        "sumWithVat": 6000
      },
      {
        "person": {
          "inn": "444444444444",
          "snils": "444-444-444-44",
          "name": "Элина",
          "secondName": "Хасанова",
          "thirdName": "Рустамовна",
          "hireDate": "2015-06-16",
          "fireDate": null,
          "salary": 6000,
          "rate": 1
        },
        "sumWithVat": 6000
      }
    ],
    "references": null
  },
  "paymentClaim": null,
  "approval": {
    "documentId": 16330624,
    "approved": false
  },
  "deal": {
    "type": "PURCHASE",
    "activityClass": "TRADING"
  }
}