{
  "document": {
    "id": null,
    "foreignId": "Товарный чек/2017-05-25/02",
    "type": "rcpt",
    "date": "2017-05-25",
    "number": "Товарный чек/2017-05-25/02",
    "sum": 300,
    "vatSum": 36,
    "sumWithVat": 336,
    "fromContractor": {
      "inn": "7814657623",
      "name": "ООО «НИКС»",
      "kpp": "1234567890"
    },
    "fromContractorAddress": {
      "fullAddress": "195176, Санкт-Петербург г, Пискаревский пр-кт, д. 26",
      "type": "LEGAL"
    },
    "positions": [
      {
        "nomenclature": {
          "name": "Огурцы"
        },
        "amount": 5,
        "unit": {
          "name": "килограмм",
          "code": "кг"
        },
        "price": 20,
        "vat": {
          "rate": 18,
          "name": "18%"
        },
        "sum": 100,
        "vatSum": 18,
        "sumWithVat": 118.00
      },
      {
        "nomenclature": {
          "name": "Помидоры"
        },
        "amount": 5,
        "unit": {
          "name": "килограмм",
          "code": "кг"
        },
        "price": 20,
        "vat": {
          "rate": 18,
          "name": "18%/118%"
        },
        "sum": 100,
        "vatSum": 18,
        "sumWithVat": 118.00
      },
      {
        "nomenclature": {
          "name": "Грибы"
        },
        "amount": 5,
        "unit": {
          "name": "штук",
          "code": "шт"
        },
        "price": 20,
        "vat": {
          "rate": null,
          "name": "БЕЗ НДС"
        },
        "sum": 100,
        "vatSum": 0,
        "sumWithVat": 100
      }
    ]
  }
}