{
  "document": {
    "type": {
      "value": [
        "pord",
        "invc"
      ],
      "excluding": false
    },
    "date": {
      "value": {
        "from": "2016-12-01",
        "to": "2016-12-31"
      }
    }
  },

  "project": {
    "inn": {
      "value": [
        "7841482490"
      ]
    },
    "excluding": false
  },

  "contractor": {
    "inn": {
      "value": [
        "7814618751"
      ]
    },
    "excluding": false
  },

  "deal": {
    "type": {
      "value": "PURCHASE",
      "excluding": false
    }
  },

  "approval": {
    "invoker": {
      "value": "APPROVED",
      "excluding": false
    }
  }

}